{
  "routes": [
    {
      "route": "/api/*"
    }
  ],
  "navigationFallback": {
    "rewrite": "/index.html",
    "exclude": ["*.{css,scss,js,png,gif,ico,jpg,svg}"]
  },
  "platform": {
    "apiRuntime": "node:16"
  }
}
