<?xml version="1.0" standalone="no"?>
<!DOCTYPE svg PUBLIC "-//W3C//DTD SVG 20010904//EN"
 "http://www.w3.org/TR/2001/REC-SVG-20010904/DTD/svg10.dtd">
<svg version="1.0" xmlns="http://www.w3.org/2000/svg"
 width="512.000000pt" height="512.000000pt" viewBox="0 0 512.000000 512.000000"
 preserveAspectRatio="xMidYMid meet">
<metadata>
Created by potrace 1.14, written by Peter Selinger 2001-2017
</metadata>
<g transform="translate(0.000000,512.000000) scale(0.100000,-0.100000)"
fill="#000000" stroke="none">
<path d="M575 4626 c-41 -18 -83 -69 -90 -109 -3 -18 -5 -190 -3 -384 3 -337
4 -353 24 -379 39 -53 71 -69 134 -69 63 0 95 16 134 69 20 26 21 43 24 296
l3 269 269 3 c253 3 270 4 296 24 53 39 69 71 69 134 0 63 -16 95 -69 134 -26
20 -41 21 -394 23 -290 2 -373 0 -397 -11z"/>
<path d="M3775 4626 c-94 -41 -124 -169 -58 -247 47 -56 67 -59 347 -59 l255
0 3 -269 c3 -254 4 -271 24 -297 39 -53 71 -69 134 -69 63 0 95 16 134 69 20
27 21 39 21 406 0 367 -1 379 -21 406 -11 15 -33 37 -48 48 -26 20 -41 21
-394 23 -290 2 -373 0 -397 -11z"/>
<path d="M1416 3978 c-22 -13 -49 -39 -60 -58 -20 -34 -21 -50 -24 -617 l-3
-582 -479 -3 c-468 -3 -479 -3 -507 -24 -98 -73 -98 -195 0 -268 l28 -21 2189
0 2189 0 28 21 c98 73 98 195 0 268 -28 21 -39 21 -507 24 l-479 3 -3 582 c-3
567 -4 583 -24 617 -30 52 -88 82 -147 77 -54 -5 -91 -27 -124 -77 l-23 -33 0
-583 0 -584 -160 0 -159 0 -3 583 c-3 567 -4 583 -24 617 -30 52 -88 82 -147
77 -54 -5 -91 -27 -124 -77 l-23 -33 0 -583 0 -584 -160 0 -160 0 0 573 0 573
-22 44 c-41 79 -57 85 -236 88 -148 2 -159 1 -196 -20 -22 -13 -49 -39 -60
-58 -20 -34 -21 -50 -24 -617 l-3 -583 -159 0 -160 0 0 584 0 583 -22 33 c-53
77 -139 100 -212 58z"/>
<path d="M1416 2058 c-22 -13 -49 -39 -60 -58 -20 -34 -21 -50 -21 -400 0
-350 1 -366 21 -400 30 -52 88 -82 147 -77 54 5 91 27 125 77 22 33 22 36 22
400 0 364 0 367 -22 400 -53 77 -139 100 -212 58z"/>
<path d="M2056 2058 c-22 -13 -49 -39 -60 -58 -20 -33 -21 -53 -24 -390 -3
-353 -3 -355 20 -399 41 -80 57 -86 236 -89 148 -2 159 -1 196 20 22 13 49 39
60 58 20 33 21 53 24 390 3 353 3 355 -20 399 -41 80 -57 86 -236 89 -148 2
-159 1 -196 -20z"/>
<path d="M2930 2069 c-14 -6 -36 -20 -48 -32 -52 -48 -52 -50 -52 -440 0 -361
0 -364 23 -397 33 -50 70 -72 124 -77 59 -5 117 25 147 77 20 34 21 50 21 400
0 350 -1 366 -21 400 -37 64 -126 96 -194 69z"/>
<path d="M3570 2069 c-14 -6 -36 -20 -48 -32 -52 -48 -52 -50 -52 -440 0 -361
0 -364 23 -397 33 -50 70 -72 124 -77 59 -5 117 25 147 77 20 34 21 50 21 400
0 350 -1 366 -21 400 -37 64 -126 96 -194 69z"/>
<path d="M575 1426 c-41 -18 -83 -69 -90 -109 -3 -18 -5 -190 -3 -384 3 -337
4 -353 24 -379 11 -15 33 -37 48 -48 27 -20 39 -21 406 -21 367 0 379 1 406
21 53 39 69 71 69 134 0 63 -16 95 -69 134 -26 20 -43 21 -296 24 l-269 3 -3
269 c-3 253 -4 270 -24 296 -11 15 -32 37 -46 47 -33 25 -113 32 -153 13z"/>
<path d="M4415 1426 c-37 -17 -70 -52 -84 -89 -7 -17 -11 -127 -11 -282 l0
-254 -269 -3 c-254 -3 -271 -4 -297 -24 -53 -39 -69 -71 -69 -134 0 -63 16
-95 69 -134 27 -20 39 -21 406 -21 367 0 379 1 406 21 15 11 37 33 48 48 20
27 21 39 21 406 0 367 -1 379 -21 406 -11 15 -32 37 -46 47 -34 25 -113 32
-153 13z"/>
</g>
</svg>
